\relax 
\catcode `"\active 
\catcode `<\active 
\catcode `>\active 
\@nameuse{es@quoting}
\select@language{spanish}
\@writefile{toc}{\select@language{spanish}}
\@writefile{lof}{\select@language{spanish}}
\@writefile{lot}{\select@language{spanish}}
\@writefile{toc}{\contentsline {section}{\numberline {1}Complejidad de algoritmos}{2}}
\@writefile{toc}{\contentsline {subsection}{\numberline {1.1}Ejercicio 1}{2}}
\@writefile{toc}{\contentsline {subsection}{\numberline {1.2}Ejercicio 2}{2}}
\@writefile{toc}{\contentsline {subsection}{\numberline {1.3}Ejercicio 3}{2}}
\@writefile{toc}{\contentsline {subsection}{\numberline {1.4}Ejercicio 4}{3}}
\@writefile{toc}{\contentsline {subsection}{\numberline {1.5}Ejercicio 5}{3}}
\@writefile{toc}{\contentsline {subsection}{\numberline {1.6}Ejercicio 9}{4}}
